Data Analysis: Technology Use and Mental Health
…
Warning: ! tune detected a parallel backend registered with foreach but no backend
  registered with future.
ℹ Support for parallel processing with foreach was soft-deprecated in tune
  1.2.1.
ℹ See ?parallelism (`?tune::parallelism()`) to learn more.

rf_tune_res %>% collect_metrics()

# A tibble: 60 × 9
    mtry trees min_n .metric     .estimator     mean     n std_err .config      
   <int> <int> <int> <chr>       <chr>         <dbl> <int>   <dbl> <chr>        
 1     3   247     2 accuracy    multiclass 0.254        5 0.00499 Preprocessor…
 2     3   247     2 kap         multiclass 0.00506      5 0.00666 Preprocessor…
 3     3   247     2 mn_log_loss multiclass 1.41         5 0.00258 Preprocessor…
 4     4   142    10 accuracy    multiclass 0.253        5 0.00555 Preprocessor…
 5     4   142    10 kap         multiclass 0.00329      5 0.00741 Preprocessor…
 6     4   142    10 mn_log_loss multiclass 1.41         5 0.00234 Preprocessor…
 7     3   175    20 accuracy    multiclass 0.251        5 0.00355 Preprocessor…
 8     3   175    20 kap         multiclass 0.000796     5 0.00470 Preprocessor…
 9     3   175    20 mn_log_loss multiclass 1.40         5 0.00185 Preprocessor…
10     2   308     6 accuracy    multiclass 0.258        5 0.00411 Preprocessor…
# ℹ 50 more rows
…
